<?xml version="1.0" encoding="UTF-8" standalone="no"?>
<svg width="24px" height="24px" viewBox="0 0 24 24" version="1.1" xmlns="http://www.w3.org/2000/svg" xmlns:xlink="http://www.w3.org/1999/xlink">
    <!-- Generator: Sketch 45.1 (43504) - http://www.bohemiancoding.com/sketch -->
    <title>editor/text-color</title>
    <desc>Created with Sketch.</desc>
    <defs></defs>
    <g id="Original" stroke="none" stroke-width="1" fill="none" fill-rule="evenodd">
        <g id="editor/text-color">
            <path d="M14,13.5 L10,13.5 L9,16 L7,16 L10.814433,6 L13.185567,6 L17,16 L15,16 L14,13.5 Z M13.5,11.9999999 L12,7.5 C11.5729013,8.89911635 10.5,11.9999999 10.5,11.9999999 L13.5,11.9999999 Z" id="Shape" fill="#42526E"></path>
            <rect id="Rectangle-7" fill="#79F2C0" x="6" y="17" width="12" height="2" rx="0.5"></rect>
        </g>
    </g>
</svg>